/*
 * Copyright (c) 2014, Sandia Corporation.
 * Under the terms of Contract DE-AC04-94AL85000 with Sandia Corporation,
 * the U.S. Government retains certain rights in this software.
 * 
 * Redistribution and use in source and binary forms, with or without
 * modification, are permitted provided that the following conditions are
 * met:
 * 
 *     * Redistributions of source code must retain the above copyright
 *       notice, this list of conditions and the following disclaimer.
 * 
 *     * Redistributions in binary form must reproduce the above
 *       copyright notice, this list of conditions and the following
 *       disclaimer in the documentation and/or other materials provided
 *       with the distribution.
 * 
 *     * Neither the name of Sandia Corporation nor the names of its
 *       contributors may be used to endorse or promote products derived
 *       from this software without specific prior written permission.
 * 
 * THIS SOFTWARE IS PROVIDED BY THE COPYRIGHT HOLDERS AND CONTRIBUTORS
 * "AS IS" AND ANY EXPRESS OR IMPLIED WARRANTIES, INCLUDING, BUT NOT
 * LIMITED TO, THE IMPLIED WARRANTIES OF MERCHANTABILITY AND FITNESS FOR
 * A PARTICULAR PURPOSE ARE DISCLAIMED. IN NO EVENT SHALL THE COPYRIGHT
 * OWNER OR CONTRIBUTORS BE LIABLE FOR ANY DIRECT, INDIRECT, INCIDENTAL,
 * SPECIAL, EXEMPLARY, OR CONSEQUENTIAL DAMAGES (INCLUDING, BUT NOT
 * LIMITED TO, PROCUREMENT OF SUBSTITUTE GOODS OR SERVICES; LOSS OF USE,
 * DATA, OR PROFITS; OR BUSINESS INTERRUPTION) HOWEVER CAUSED AND ON ANY
 * THEORY OF LIABILITY, WHETHER IN CONTRACT, STRICT LIABILITY, OR TORT
 * (INCLUDING NEGLIGENCE OR OTHERWISE) ARISING IN ANY WAY OUT OF THE USE
 * OF THIS SOFTWARE, EVEN IF ADVISED OF THE POSSIBILITY OF SUCH DAMAGE.
 * 
/* -*- Mode: c++ -*- */
%{

#include <fstream>
#include <iostream>
#include <sstream>
#include <stack>
#include <stdio.h>
#include <string.h>
#include <fcntl.h> 

#include "apr_scanner.h"
#include "aprepro.h"
#include "apr_util.h"

#define YY_NO_UNISTD_H
/* import the parser's token type into a local typedef */
typedef SEAMS::Parser::token token;
typedef SEAMS::Parser::token_type token_type;

/* By default yylex returns int, we use token_type. Unfortunately yyterminate
 * by default returns 0, which is not of token_type. */
#define yyterminate() return token::END

#define show(x)   *(aprepro->infoStream) << "<" << x << ">" << std::flush;
 namespace SEAMS {
   extern int echo;
   extern char *get_temp_filename(void);
   extern char *pathopen(const char *file);
   extern void  conv_string(const char *string);
   void yyerror(const char *s);
 }
 
int ifdef;
int file_must_exist = 0; /* Global used by include/conditional include */

/* Global variables used by the looping mechanism */
int loop_lvl = 0;
std::fstream *tmp_file;
char  *temp_f;

#define MAX_IF_NESTING 64

 int if_state[MAX_IF_NESTING] = {0}; // INITIAL
 int if_case_run[MAX_IF_NESTING] = {false}; /* Has any if or elseif condition executed */
 int if_lvl = 0;
 int if_skip_level = 0;
bool suppress_nl = false;
 bool switch_active = false;   // Are we in a switch
 bool switch_case_run = false; // has there been a case which matched condition run?
 bool switch_skip_to_endcase = false;
 double switch_condition = 0.0; // Value specified in "switch(condition)"

// For substitution history
size_t curr_index = 0;
std::string history_string;
size_t hist_start = 0;

#define YY_USER_ACTION curr_index += yyleng;
 
%}
/*** Flex Declarations and Options ***/

/* enable c++ scanner class generation */
%option c++

/* change the name of the scanner class. results in "SEAMSFlexLexer" */
%option prefix="SEAMS"

/* enable scanner to generate debug output. disable this for release
 * versions. */
%option debug

/* enables the use of start condition stacks */
%option stack

qstring	\"[^\"\n]*[\"\n]
mlstring \'[^\']*[\']
D     [0-9]
E     [Ee][+-]?{D}+
L     [A-Za-z_]
id    {L}({L}|{D}|:)*
WS    [ \t\f]*
NL    "\n"
number {D}*\.({D}+)?({E})?
integer {D}+({E})?

%START PARSING GET_FILENAME IF_SKIP GET_VAR VERBATIM IF_WHILE_SKIP GET_LOOP_VAR LOOP LOOP_SKIP END_CASE_SKIP

%%
<VERBATIM>{
  "{VERBATIM(OFF)}" { BEGIN(INITIAL);   }
  [A-Za-z0-9_ ]* |
    .               { if (echo) ECHO; }
  "\n"              { if (echo) ECHO; aprepro.ap_file_list.top().lineno++;   }
}

<INITIAL>{
  "{VERBATIM(ON)}"   { BEGIN(VERBATIM);  }
  {WS}"{ECHO}" |
  {WS}"{ECHO(ON)}"	    { echo = true;	}
  {WS}"{NOECHO}" |
  {WS}"{ECHO(OFF)}"	    { echo = false;	}

  {WS}"{IMMUTABLE(ON)}"	    { aprepro.stateImmutable = true;	}
  {WS}"{IMMUTABLE(OFF)}"	    { aprepro.stateImmutable = aprepro.ap_options.immutable; }

  {WS}"{"[Ll]"oop"{WS}"(" {
    BEGIN(GET_LOOP_VAR);
    if (aprepro.ap_options.debugging) 
      std::cerr << "DEBUG LOOP - Found loop begin test " << yytext << " in file "
		<< aprepro.ap_file_list.top().name << "\n";
  }
}

<GET_LOOP_VAR>{
  {number}")".*"\n" |
	    {integer}")}".*"\n" {
    /* Loop control defined by integer */
    char *pt = strchr(yytext, ')');
    *pt = '\0';
    sscanf (yytext, "%lf", &yylval->val);

    if (yylval->val <= 0) {
      BEGIN(LOOP_SKIP);
    }
    else {/* Value defined and != 0. */
      temp_f = get_temp_filename();
      SEAMS::file_rec new_file(temp_f, 0, true, (int)yylval->val);
      aprepro.ap_file_list.push(new_file);

      if (aprepro.ap_options.debugging) 
	std::cerr << "DEBUG LOOP VAR = " << aprepro.ap_file_list.top().loop_count
		  << " in file " << aprepro.ap_file_list.top().name
		  << " at line " << aprepro.ap_file_list.top().lineno << "\n";

      tmp_file = new std::fstream(temp_f, std::ios::out);
      loop_lvl++;
      BEGIN(LOOP);
    }
    aprepro.ap_file_list.top().lineno++;
    aprepro.isCollectingLoop = true;
  }

  .+")}".*"\n"  {
    /* Loop control defined by variable */
    symrec *s;
    char *pt = strchr(yytext, ')');
    *pt = '\0';
    if (!check_valid_var(yytext)) {
      aprepro.warning("Invalid variable name syntax '" + std::string(yytext) + "'");
      BEGIN(LOOP_SKIP);
    } else {
      s = aprepro.getsym(yytext);

      if (s == 0 || (s->type != token::SVAR && s->type != token::IMMSVAR && s->value.var == 0.)) {
	BEGIN(LOOP_SKIP);
      }
      else { /* Value defined and != 0. */
	temp_f = get_temp_filename();
	SEAMS::file_rec new_file(temp_f, 0, true, (int)s->value.var);
	aprepro.ap_file_list.push(new_file);
				
	if (aprepro.ap_options.debugging) 
	  std::cerr << "DEBUG LOOP VAR = " << aprepro.ap_file_list.top().loop_count
		    << " in file " << aprepro.ap_file_list.top().name
		    << " at line " << aprepro.ap_file_list.top().lineno << "\n";

	tmp_file = new std::fstream(temp_f, std::ios::out);
	loop_lvl++;
	BEGIN(LOOP);
      }
    }
    aprepro.ap_file_list.top().lineno++;
    aprepro.isCollectingLoop = true;
  }
}

<LOOP>{
  {WS}"{"[Ee]"nd"[Ll]"oop".*"\n" {
    aprepro.ap_file_list.top().lineno++;
    if(loop_lvl > 0)
      --loop_lvl;

    if (loop_lvl == 0) {
      BEGIN(INITIAL);
      tmp_file->close();
      delete tmp_file;

      if(!aprepro.doLoopSubstitution)
        yy_push_state(VERBATIM);

      aprepro.isCollectingLoop = false;
				     
      yyin = aprepro.open_file(aprepro.ap_file_list.top().name, "r");
      yyFlexLexer::yypush_buffer_state (yyFlexLexer::yy_create_buffer( yyin, YY_BUF_SIZE));
      curr_index = 0;
    }
    else {
      (*tmp_file) << yytext;
    }
  }

  {WS}"{"[Ll]"oop"{WS}"(".*"\n"  {
    loop_lvl++; /* Nested Loop */
    (*tmp_file) << yytext;
    aprepro.ap_file_list.top().lineno++;
  }

  {WS}"{"[Aa]"bort"[Ll]"oop".*"\n" {
    if(aprepro.ap_options.interactive ||
       aprepro.string_interactive())
    {
      aprepro.warning("Aborting loop(s).", false);

      // Leave the looping state and remove the loop file
      BEGIN(INITIAL);
      tmp_file->close();
      delete tmp_file;

      if(aprepro.ap_file_list.top().tmp_file) {
        remove(aprepro.ap_file_list.top().name.c_str());
        aprepro.ap_file_list.pop();
      }

      loop_lvl = 0;
      aprepro.isCollectingLoop = false;
    }
  }

  .*"\n" {
    (*tmp_file) << yytext;
    aprepro.ap_file_list.top().lineno++;
  }
}

<LOOP_SKIP>{
  {WS}"{"[Ee]"nd"[Ll]"oop".*"\n" {
    aprepro.ap_file_list.top().lineno++;
    if(loop_lvl > 0)
      --loop_lvl;

    if (loop_lvl == 0) {
      BEGIN(INITIAL);
      aprepro.isCollectingLoop = false;
    }
  }

  {WS}"{"[Ll]"oop"{WS}"(".*"\n" {
    loop_lvl++; /* Nested Loop */
    aprepro.ap_file_list.top().lineno++;
  }

  {WS}"{"[Aa]"bort"[Ll]"oop".*"\n" {
    if(aprepro.ap_options.interactive ||
       aprepro.string_interactive())
    {
      aprepro.warning("Aborting loops(s).", false);

      // Leave the looping state
      BEGIN(INITIAL);

      loop_lvl = 0;
      aprepro.isCollectingLoop = false;
    }
  }

  .*"\n" {
    aprepro.ap_file_list.top().lineno++;
  }
}

<END_CASE_SKIP>"{case".*"\n"  {
  yyless(0);
  curr_index = 0;
  BEGIN(INITIAL);
  switch_skip_to_endcase = false;
}

<INITIAL,END_CASE_SKIP>"{default}".*"\n"     {
 aprepro.ap_file_list.top().lineno++;
 if (!switch_active) {
    yyerror("default statement found outside switch statement.");
  }

  if (!switch_case_run) {
    switch_case_run = true;
    BEGIN(INITIAL);
    switch_skip_to_endcase = false;
    if (aprepro.ap_options.debugging) 
      fprintf (stderr, "DEBUG SWITCH: 'default' code executing at line %d\n",
	       aprepro.ap_file_list.top().lineno);
  } 
  else {
    if (aprepro.ap_options.debugging) 
      fprintf (stderr, "DEBUG SWITCH: 'default' not executing since a previous case already ran at line %d\n",
	       aprepro.ap_file_list.top().lineno);
    
    /* Need to skip all code until end of case */
    BEGIN(END_CASE_SKIP);
  }
}

<END_CASE_SKIP>"{endswitch}".*"\n"  {
  aprepro.ap_file_list.top().lineno++;
  BEGIN(INITIAL);
  switch_active = false;
  switch_skip_to_endcase = false;
}

<END_CASE_SKIP>.*"\n" {  aprepro.ap_file_list.top().lineno++; }

<INITIAL>{WS}"{endswitch}".*"\n"        {
  aprepro.ap_file_list.top().lineno++;
  if (!switch_active) {
    yyerror("endswitch statement found without matching switch.");
  }
  switch_active = false;
}

<IF_WHILE_SKIP>{
  /* If an if was found while skipping, then eat
   * that entire if block until endif
   * found since there is no way that
   * any of the code in that if block could be executed.
   * Make sure to handle multiple levels of skipped ifs...
   *
   * NOTE: if_lvl was not incremented, so don't need to decrement when
   *       endif found.
   */
  {WS}"{"[Ee]"nd"[Ii]"f}".*"\n"     {
    aprepro.ap_file_list.top().lineno++;  
    if (--if_skip_level == 0)
      BEGIN(IF_SKIP);
  }

  {WS}"{"[Ii]"fdef"{WS}"(".*"\n"  { 
    aprepro.ap_file_list.top().lineno++;  
    if_skip_level++;
  }

  {WS}"{"[Ii]"f"{WS}"(".*"\n"  {
    aprepro.ap_file_list.top().lineno++;  
    if_skip_level++;
  }

  {WS}"{"[Ii]"fndef"{WS}"(".*"\n" {
    aprepro.ap_file_list.top().lineno++;  
    if_skip_level++;
  }

  .*"\n" {
    aprepro.ap_file_list.top().lineno++;
  }
}

<IF_SKIP>{
  /* IF an if, ifdef, or ifndef found while skipping, then
   * skip the entire block up and including the endif.
   * The (IF_WHILE_SKIP) start condition handles this skipping.
   */
  {WS}"{"[Ii]"fdef"{WS}"("  { 
    if (aprepro.ap_options.debugging) 
      fprintf (stderr, "DEBUG IF: 'ifdef'  found while skipping at line %d\n",
	       aprepro.ap_file_list.top().lineno);
    if_skip_level = 1;
    BEGIN(IF_WHILE_SKIP);
  }

  {WS}"{"[Ii]"f"{WS}"("  {
    if (aprepro.ap_options.debugging) 
      fprintf (stderr, "DEBUG IF: 'ifdef'  found while skipping at line %d\n",
	       aprepro.ap_file_list.top().lineno);
    if_skip_level = 1;
    BEGIN(IF_WHILE_SKIP);
  }

  {WS}"{"[Ii]"fndef"{WS}"(" {
    if (aprepro.ap_options.debugging) 
      fprintf (stderr, "DEBUG IF: 'ifndef'  found while skipping at line %d\n",
	       aprepro.ap_file_list.top().lineno);
    if_skip_level = 1;
    BEGIN(IF_WHILE_SKIP);
  }
}

{WS}"{"[Ee]"lse}".*"\n"  { 
  aprepro.ap_file_list.top().lineno++; 
  if (aprepro.ap_options.debugging) 
    fprintf (stderr, "DEBUG IF: 'else'   at level = %d at line %d\n",
	     if_lvl, aprepro.ap_file_list.top().lineno);
  if(YY_START == VERBATIM) {
    if(echo) ECHO;
  }
  else if (if_state[if_lvl] == IF_SKIP) {
    if (!if_case_run[if_lvl]) {
      BEGIN(INITIAL);
      if_state[if_lvl] = INITIAL;
      if_case_run[if_lvl] = true;
    } else {
      BEGIN(IF_SKIP);
      if_state[if_lvl] = IF_SKIP;
    }
  }
  else if (if_state[if_lvl] == INITIAL) {
    BEGIN(IF_SKIP);
    if_state[if_lvl] = IF_SKIP;
  }
  
  /* If neither is true, this is a nested 
     if that should be skipped */
}

<IF_SKIP>{
  {WS}"{"{WS}[Ee]"lse"[Ii]"f".*"\n"  {
    /* If any previous 'block' of this if has executed, then
     * just skip this block; otherwise see if condition is
     * true and execute this block
     */
    if (aprepro.ap_options.debugging) 
      fprintf (stderr, "DEBUG IF: 'elseif'   at level = %d at line %d\n",
	       if_lvl, aprepro.ap_file_list.top().lineno);

    if (if_case_run[if_lvl]) { /* A previous else/elseif has run */
      aprepro.ap_file_list.top().lineno++; 
      /* Already in IF_SKIP, so don't need to change state */
    } else {
      /* Need to check the elseif condition; push back and parse */
      yyless(0);
      curr_index = 0;
      BEGIN(INITIAL);
      if_state[if_lvl] = INITIAL;
    }
  }

  [A-Za-z0-9_ ]* |
   \\\{          |
   \\\}          |
   .                 { ; }

   "\n" {
     aprepro.ap_file_list.top().lineno++;
   }
}

{WS}"{"[Ee]"nd"[Ii]"f}".*"\n"     {
    aprepro.ap_file_list.top().lineno++;

    if(YY_START == VERBATIM) {
      if(echo) ECHO;
    }
    else {
      if (if_state[if_lvl] == IF_SKIP ||
          if_state[if_lvl] == INITIAL)
            BEGIN(INITIAL);
			   /* If neither is true, this is a nested 
			      if that should be skipped */
      if (aprepro.ap_options.debugging)
        printf ("DEBUG IF: 'endif'  at level = %d at line %d\n",
                if_lvl, aprepro.ap_file_list.top().lineno);
      if (--if_lvl < 0) {
        if_lvl = 0;
        yyerror("Improperly Nested ifdef/ifndef statements");
      }
      /* Ignore endif if not skipping */
    }
  }

<INITIAL>{WS}"{"[Ii]"nclude"{WS}"("           { BEGIN(GET_FILENAME); 
                             file_must_exist = true; }
<INITIAL>{WS}"{"[Cc]"include"{WS}"("          { BEGIN(GET_FILENAME);
                             file_must_exist = !true; }
<GET_FILENAME>.+")"{WS}"}"{NL}* { BEGIN(INITIAL); 
			     {
			       symrec *s;
			       int quoted = false;
			       std::fstream *yytmp;
			       char *pt = strchr(yytext, ')');
			       *pt = '\0';
			       /* Check to see if surrounded by double quote */ 
			       if ((pt = strchr(yytext, '"')) != NULL) {
				 yytext++;
				 quoted = true;
			       }
			       if ((pt = strrchr(yytext, '"')) != NULL) {
				 *pt = '\0';
				 quoted = true;
			       }

			       if (quoted == false) {
				 /* See if this is an aprepro variable referring to a name */
				 s = aprepro.getsym(yytext);
				 if (s == 0 || (s->type != token::SVAR && s->type != token::IMMSVAR)) {
				   pt = yytext;
				 } else {
				   pt = (char*)s->value.svar;
				 }
			       } else {
				 pt = yytext;
			       }
			       
			       if (file_must_exist)
				 yytmp = aprepro.open_file(pt, "r");
			       else
				 yytmp = aprepro.check_open_file(pt, "r");
             if (yytmp != NULL) {
				 yyin = yytmp;
				 aprepro.info("Included File: '" +
					      std::string(pt) + "'", true);

				 SEAMS::file_rec new_file(pt, 0, false, 0);
				 aprepro.ap_file_list.push(new_file);

				 yyFlexLexer::yypush_buffer_state (
            yyFlexLexer::yy_create_buffer( yyin, YY_BUF_SIZE));
         curr_index = 0;

         if(!aprepro.doIncludeSubstitution)
           yy_push_state(VERBATIM);

			       } else {
				 aprepro.warning("Can't open '" +
						 std::string(yytext) + "'", false);
			       }
			       aprepro.ap_file_list.top().lineno++;
			     }
			   }

<PARSING>{integer}  |        
<PARSING>{number}	   { sscanf (yytext, "%lf", &yylval->val);
                       return(token::NUM); }

<PARSING>{WS}          ; // Empty rule

<PARSING>{id} {
           symrec *s;
			     s = aprepro.getsym(yytext);
			     if (s == 0)
			       s = aprepro.putsym (yytext, SEAMS::Aprepro::UNDEFINED_VARIABLE, 0);
			     yylval->tptr = s;
			     return((token::yytokentype)s->type);
			   }
<PARSING>"="               return(token::EQUAL);
<PARSING>"+="              return(token::EQ_PLUS);
<PARSING>"-="              return(token::EQ_MINUS);
<PARSING>"*="              return(token::EQ_TIME);
<PARSING>"/="              return(token::EQ_DIV);
<PARSING>"^="              return(token::EQ_POW);
<PARSING>"**="             return(token::EQ_POW);
<PARSING>"++"              return(token::INC);
<PARSING>"--"              return(token::DEC);
<PARSING>"+"               return(token::PLU);
<PARSING>"-"               return(token::SUB);
<PARSING>"*"               return(token::TIM);
<PARSING>"~"		   return(token::TIM);		/* ~ is same as multiply */
<PARSING>"//"		   return(token::CONCAT);	/* String concatenation */
<PARSING>"/"               return(token::DIV);
<PARSING>"%"               return(token::MOD);
<PARSING>"^"               return(token::POW);
<PARSING>"**"              return(token::POW);
<PARSING>"\n"              aprepro.ap_file_list.top().lineno++;
<PARSING>"("               return(token::LPAR);
<PARSING>")"               return(token::RPAR);
<PARSING>","               return(token::COMMA);
<PARSING>";"               return(token::SEMI);
<PARSING>":"               return(token::COLON);
<PARSING>"?"               return(token::QUEST);
<PARSING>"<"               return(token::LT);
<PARSING>">"               return(token::GT);
<PARSING>"<="              return(token::LE);
<PARSING>">="              return(token::GE);
<PARSING>"=="              return(token::EQ);
<PARSING>"!="              return(token::NE);
<PARSING>"&&"              return(token::LAND);
<PARSING>"||"              return(token::LOR);
<PARSING>"!"               return(token::NOT);
<PARSING>"["               return(token::LBRACK);
<PARSING>"]"               return(token::RBRACK);
<PARSING>{qstring}	   {
           char *pt = strrchr(yytext, '"');
			     *pt = '\0';
                             new_string(yytext+1, &yylval->string);
			     return token::QSTRING; }

<PARSING>{mlstring}	   {
           char *pt = strrchr(yytext, '\'');
			     *pt = '\0';
                             new_string(yytext+1, &yylval->string);
			     return token::QSTRING; }

<PARSING>"}" {
  // Add to the history string
  save_history_string();

  if (switch_skip_to_endcase)
    BEGIN(END_CASE_SKIP);
  else
    BEGIN(if_state[if_lvl]);
  return(token::RBRACE);
}


\\\{                      { if (echo) LexerOutput("{", 1); }

\\\}                      { if (echo) LexerOutput("}", 1); }

"{"  {
    // Check if we need to save the substitution history first.
    if(aprepro.ap_options.keep_history &&
       strcmp("_string_", aprepro.ap_file_list.top().name.c_str()) != 0)
    {
      hist_start = curr_index - yyleng;
      if(hist_start < 0)
        hist_start = 0;
    }

    BEGIN(PARSING);

    return(token::LBRACE);
  }

[Ee][Xx][Ii][Tt] |
[Qq][Uu][Ii][Tt]           { if (aprepro.ap_options.end_on_exit)
			       {
				 if (echo) ECHO;
				 return((token::yytokentype)-1);  
			       }
                              else 
                               if (echo) ECHO;
			   }


\$			   { if (echo) ECHO; }


{id} |
.                          { if (echo && if_state[if_lvl] != IF_SKIP) ECHO; }

"\n"                       { if (echo && !suppress_nl) ECHO; suppress_nl = false;
                             aprepro.ap_file_list.top().lineno++;}

%%

/* When the scanner receives an end-of-file indication from YY_INPUT, it then
 * checks the yywrap() function. If yywrap() returns false (zero), then it is
 * assumed that the function has gone ahead and set up `yyin' to point to
 * another input file, and scanning continues. If it returns true (non-zero),
 * then the scanner terminates, returning 0 to its caller. */

namespace SEAMS {

  Scanner::Scanner(Aprepro& aprepro_yyarg,
		   std::istream* in,
		   std::ostream* out)
    : SEAMSFlexLexer(in, out), aprepro(aprepro_yyarg)
  {
    aprepro.outputStream.push(out);
  }

  Scanner::~Scanner()
  { }

  void Scanner::LexerOutput(const char* buf, int size )
  {
    // Do this before writing so that we have the correct index in the
    // output stream.
    if(aprepro.ap_options.keep_history)
    {
      aprepro.add_history(history_string, buf);
      history_string.clear();
      hist_start = 0;
    }

    aprepro.outputStream.top()->write( buf, size );
    if (aprepro.ap_options.interactive && aprepro.outputStream.size() == 1) {
      // In interactive mode, output to stdout in addition to the
      // output stream, unless user has redirected output...
      std::cout << buf;
    }
  }

  int Scanner::yywrap()
  {
    // Clear the history string.
    history_string.clear();
    hist_start = 0;
    curr_index = 0;

    // If we are using the string interactive method, we want to return to
    // our original state if parsing was cutoff prematurely.
    if(aprepro.string_interactive() && YY_START == PARSING)
    {  


      if (switch_skip_to_endcase)
        BEGIN(END_CASE_SKIP);
      else
        BEGIN(if_state[if_lvl]);
    }


    if (aprepro.ap_file_list.size() <= 1) {		/* End of main file, not in nested include */
      return (1);
    }
    else if (aprepro.string_interactive() && loop_lvl) {
        return (1);
    }
    else {
      /* We are in an included or looping file */
      if (aprepro.ap_file_list.top().tmp_file) {
        if (aprepro.ap_options.debugging)
          std::cerr << "DEBUG LOOP: Loop count = " << aprepro.ap_file_list.top().loop_count << "\n";
        if (--aprepro.ap_file_list.top().loop_count <= 0)  {
          // On Windows, you can't remove the temp file until all the references to the
          // file object have been released, so we will delete it here.
          delete yyin;

          if (strcmp("_string_", aprepro.ap_file_list.top().name.c_str()) != 0) {
            if (!aprepro.ap_options.debugging)
              remove(aprepro.ap_file_list.top().name.c_str());	/* Delete file if temporary */

            if(!aprepro.doLoopSubstitution)
              yy_pop_state();
          }

          aprepro.ap_file_list.pop();
          yyFlexLexer::yypop_buffer_state();
        }
        else {
          // Do not pop ap_file_list; we are rereading that file...
          delete yyin;
          yyFlexLexer::yypop_buffer_state();
          yyin = aprepro.open_file(aprepro.ap_file_list.top().name, "r");
          yyFlexLexer::yypush_buffer_state (yyFlexLexer::yy_create_buffer(yyin, YY_BUF_SIZE));
          aprepro.ap_file_list.top().lineno = 0;
        }
      }
      else {
        delete yyin;
        yyFlexLexer::yypop_buffer_state();
        aprepro.ap_file_list.pop();

        /* Turn echoing back on at end of included files. */
        echo = true;

        // If we are not doing aprepro substitutions for the included file, but
        // just collecting lines, pop the state from VERBATIM back to what it
        // was previously.
        if(!aprepro.doIncludeSubstitution)
          yy_pop_state();

        /* Set immutable mode back to global immutable
        * state at end of included file*/
        aprepro.stateImmutable = aprepro.ap_options.immutable;
      }

      // Reset the current character index.
      curr_index = yyin->tellg();

      return (0);
    }
  }

  /* Print error message to standard error and return.  Note: internally
   *   'lineno' starts at zero.  To avoid confusion, we add 1 to value
   *   when it is output.
   */

  void Scanner::yyerror (const char *s)
  {
    aprepro.error(s);
  }

  char *Scanner::execute (char string[])
  {
    /* Push the contents of 'string' onto the stack to be reread.
     * 'string' will be surrounded by {} so it must be a valid expression.
     */

    /*
     * NOTE: The closing } has not yet been scanned in the call to execute();
     *       therefore, we read it ourselves using input(), then we push:
     *       '}{' + our string + '}' 
     */
    int i;
    while ((i = yyFlexLexer::yyinput ()) != '}' && i != EOF)
      curr_index++;				/* eat up values */

    // Increment curr_index to account for the '}' and save history
    curr_index++;
    save_history_string();

    /* Allocate space for string + '}' + '{' + end_of_string */
    std::string new_string;
    new_string += "}{";
    new_string += string;
    new_string += "}";

    aprepro.ap_file_list.push(SEAMS::file_rec("_string_", 0, true, -1));
  
    std::istringstream *ins = new std::istringstream(new_string); // Declare an input string stream.
    yyFlexLexer::yypush_buffer_state(yyFlexLexer::yy_create_buffer(ins, new_string.size()));
    return (NULL);
  }

  /* Push the contents of 'string' onto the stack to be reread.
   * 'string' will not be surrounded by {}.
   */

  char *Scanner::rescan (char *string)
  {
    int i;
    /*
     * NOTE: The closing } has not yet been scanned in the call to rescan();
     *       therefore, we read it ourselves using input(), then we push our
     *       string and then put the closing } back on the stack last
     *       (to be read first),
     */
    while ((i = yyFlexLexer::yyinput ()) != '}' && i != EOF)
      curr_index++;				/* eat up values */

    // Increment curr_index to account for the '}' and save history
    curr_index++;
    save_history_string();

    {
      aprepro.ap_file_list.push(SEAMS::file_rec("_string_", 0, true, -1));
      std::string new_string("}");
      new_string += string;

      std::istringstream *ins = new std::istringstream(new_string); // Declare an input string stream.
      yyFlexLexer::yypush_buffer_state(yyFlexLexer::yy_create_buffer(ins, new_string.size()));
    }
    return (NULL);
  }

  char *Scanner::if_handler(double x)
  {
    if_lvl++;
    if (if_lvl >= MAX_IF_NESTING)
      yyerror("Too many nested if statements");

    if (x == 0) {
      if_state[if_lvl] = IF_SKIP;
      if_case_run[if_lvl] = false;
    } else {
      suppress_nl = true;
      if_state[if_lvl] = INITIAL;
      if_case_run[if_lvl] = true;
    }
    if (aprepro.ap_options.debugging) 
      std::cerr << "DEBUG IF: If level " << if_lvl << " " << if_state[if_lvl] << "\n"; 
    return(NULL);
  }

  char *Scanner::elseif_handler(double x)
  {
    if (x == 0 || if_case_run[if_lvl]) {
      if_state[if_lvl] = IF_SKIP;
    } else {
      suppress_nl = 1;
      if_state[if_lvl] = INITIAL;
      if_case_run[if_lvl] = true;
    }
    if (aprepro.ap_options.debugging) 
      std::cerr << "DEBUG IF: elseif at level " << if_lvl << " " << if_state[if_lvl] << "\n";
    return(NULL);
  }

  char *Scanner::switch_handler(double x)
  {
    // save that we are in a switch statement
    // save the value of 'x' for use in deciding which case to execute
    if (switch_active) {
      yyerror("switch statement found while switch already active. Nested switch not supported.");
    }

    switch_active = true;
    switch_case_run = false;
    switch_condition = x;
    switch_skip_to_endcase = true; /* Skip everything until first case */
    suppress_nl = true;

    if (aprepro.ap_options.debugging) {
      std::cerr << "DEBUG SWITCH: 'switch' with condition = " << switch_condition
		<< " at line " << aprepro.ap_file_list.top().lineno << "\n";
    }
    return(NULL);
  }

  char *Scanner::case_handler(double x)
  {
    // make sure we are in a switch statement 
    // if 'x' matches the value saved in the switch statement 
    // and no other case has been executed, then
    // execute the code in the case and set a flag indicating
    // the switch has run;
    // if 'x' does not match the value saved, then skip to endcase
    suppress_nl = true;

    if (!switch_active) {
      yyerror("case statement found outside switch statement.");
    }

    if (!switch_case_run && x == switch_condition) {
      switch_case_run = true;
      if (aprepro.ap_options.debugging) 
	fprintf (stderr, "DEBUG SWITCH: 'case' condition = %g matches switch condition = %g at line %d\n",
		 x, switch_condition, aprepro.ap_file_list.top().lineno);
    } 
    else {
      if (aprepro.ap_options.debugging) 
	fprintf (stderr, "DEBUG SWITCH: 'case' condition = %g does not match switch condition = %g (or case already matched) at line %d\n",
		 x, switch_condition, aprepro.ap_file_list.top().lineno);

      // Need to skip all code until end of case
      switch_skip_to_endcase = true;
    }
    return(NULL);
  }

  void Scanner::save_history_string()
  {
    if(!aprepro.ap_options.keep_history)
      return;

    // Don't do it if the file is the one used by execute and rescan.
    if(strcmp("_string_", aprepro.ap_file_list.top().name.c_str()) == 0)
      return;

    size_t hist_end = curr_index;
    size_t len = hist_end - hist_start;

    if(len <= 0)
      return;

    // Go back in the stream to where we started keeping history.
    yyin->seekg(hist_start);

    // Read everything up to this point again and save it.
    char* tmp = new char[len+1];
    yyin->read(tmp, len);
    tmp[len] = '\0';

    history_string = tmp;
    delete [] tmp;
    hist_start = 0;
  }
}

/* This implementation of ExampleFlexLexer::yylex() is required to fill the
 * vtable of the class ExampleFlexLexer. We define the scanner's main yylex
 * function via YY_DECL to reside in the Scanner class instead. */

#ifdef yylex
#undef yylex
#endif
int SEAMSFlexLexer::yylex()
{
    std::cerr << "in ExampleFlexLexer::yylex() !" << std::endl;
    return 0;
}

/* When the scanner receives an end-of-file indication from YY_INPUT, it then
 * checks the yywrap() function. If yywrap() returns false (zero), then it is
 * assumed that the function has gone ahead and set up `yyin' to point to
 * another input file, and scanning continues. If it returns true (non-zero),
 * then the scanner terminates, returning 0 to its caller. */

int SEAMSFlexLexer::yywrap()
{
    return 1;
}



