// -*- c++ -*-

// @HEADER
// ***********************************************************************
//
//              PyTrilinos: Python Interface to Trilinos
//                 Copyright (2005) Sandia Corporation
//
// Under terms of Contract DE-AC04-94AL85000, there is a non-exclusive
// license for use of this work by or on behalf of the U.S. Government.
//
// This library is free software; you can redistribute it and/or modify
// it under the terms of the GNU Lesser General Public License as
// published by the Free Software Foundation; either version 2.1 of the
// License, or (at your option) any later version.
//
// This library is distributed in the hope that it will be useful, but
// WITHOUT ANY WARRANTY; without even the implied warranty of
// MERCHANTABILITY or FITNESS FOR A PARTICULAR PURPOSE.  See the GNU
// Lesser General Public License for more details.
//
// You should have received a copy of the GNU Lesser General Public
// License along with this library; if not, write to the Free Software
// Foundation, Inc., 59 Temple Place, Suite 330, Boston, MA 02111-1307
// USA
// Questions? Contact Bill Spotz (wfspotz@sandia.gov)
//
// ***********************************************************************
// @HEADER

%define %loca_pitchfork_minimallyaugmented_docstring
"
PyTrilinos.LOCA.Pitchfork.MinimallyAugmented is the python interface
to namespace Pitchfork::MinimallyAugmented of the Trilinos
continuation algorithm package LOCA:

    http://trilinos.sandia.gov/packages/nox

The purpose of LOCA.Pitchfork.MinimallyAugmented is to provide ***.
The python version of LOCA.Pitchfork.MinimallyAugmented supports the
following classes:

    * AbstractGroup  - Interface to underlying groups for pitchfork
                       calculations using the minimally augmented formulation
"
%enddef

%module(package   = "PyTrilinos.LOCA.Pitchfork",
        directors = "1",
        docstring = %loca_pitchfork_minimallyaugmented_docstring) MinimallyAugmented

%{
// Teuchos includes
#include "Teuchos_Comm.hpp"
#include "Teuchos_DefaultSerialComm.hpp"
#ifdef HAVE_MPI
#include "Teuchos_DefaultMpiComm.hpp"
#endif

// LOCA includes
#include "LOCA.H"

// Local includes
#define NO_IMPORT_ARRAY
#include "numpy_include.h"
%}

// Standard exception handling
%include "exception.i"

// Include LOCA documentation
%feature("autodoc", "1");
%include "LOCA_dox.i"

// Ignore/renames
%ignore *::operator=;

// Trilinos module imports
%import "Teuchos.i"

// Teuchos::RCP handling
%teuchos_rcp(LOCA::MultiContinuation::AbstractGroup)
%teuchos_rcp(LOCA::TurningPoint::MooreSpence::AbstractGroup)
%teuchos_rcp(LOCA::TurningPoint::MinimallyAugmented::AbstractGroup)
%teuchos_rcp(LOCA::Pitchfork::MooreSpence::AbstractGroup)
%teuchos_rcp(LOCA::Pitchfork::MinimallyAugmented::AbstractGroup)

// Base class support
%pythoncode
%{
import sys, os.path as op
parentDir = op.normpath(op.join(op.dirname(op.abspath(__file__)),".."))
if not parentDir in sys.path: sys.path.append(parentDir)
del sys, op
%}
%import "NOX.Abstract.i"
%import(module="MultiContinuation") "LOCA_MultiContinuation_AbstractGroup.H"
%import(module="TurningPoint.MooreSpence") "LOCA_TurningPoint_MooreSpence_AbstractGroup.H"
%import(module="TurningPoint.MinimallyAugmented") "LOCA_TurningPoint_MinimallyAugmented_AbstractGroup.H"
%import(module="MooreSpence") "LOCA_Pitchfork_MooreSpence_AbstractGroup.H"

// LOCA::Pitchfork::MinimallyAugmented AbstractGroup class
%include "LOCA_Pitchfork_MinimallyAugmented_AbstractGroup.H"
