// -*- c++ -*-

// @HEADER
// ***********************************************************************
//
//              PyTrilinos: Python Interface to Trilinos
//                 Copyright (2005) Sandia Corporation
//
// Under terms of Contract DE-AC04-94AL85000, there is a non-exclusive
// license for use of this work by or on behalf of the U.S. Government.
//
// This library is free software; you can redistribute it and/or modify
// it under the terms of the GNU Lesser General Public License as
// published by the Free Software Foundation; either version 2.1 of the
// License, or (at your option) any later version.
//
// This library is distributed in the hope that it will be useful, but
// WITHOUT ANY WARRANTY; without even the implied warranty of
// MERCHANTABILITY or FITNESS FOR A PARTICULAR PURPOSE.  See the GNU
// Lesser General Public License for more details.
//
// You should have received a copy of the GNU Lesser General Public
// License along with this library; if not, write to the Free Software
// Foundation, Inc., 59 Temple Place, Suite 330, Boston, MA 02111-1307
// USA
// Questions? Contact Bill Spotz (wfspotz@sandia.gov)
//
// ***********************************************************************
// @HEADER

%define %loca_statustest_docstring
"
PyTrilinos.LOCA.StatusTest is the python interface to namespace *** of
the Trilinos continuation algorithm package LOCA:

    http://trilinos.sandia.gov/packages/nox

The purpose of LOCA.StatusTest is to provide status checkers.  The
python version of LOCA.StatusTest supports the following classes:

    * Abstract  - Generic status test to check for convergence or failure of
                  the LOCA continuation
    * Wrapper   - A wrapper class for wrapping a NOX status test
"
%enddef

%module(package   = "PyTrilinos.LOCA",
        directors = "1",
        docstring = %loca_statustest_docstring) StatusTest

%{
// Teuchos include
#include "Teuchos_Comm.hpp"
#include "Teuchos_DefaultSerialComm.hpp"
#ifdef HAVE_MPI
#include "Teuchos_DefaultMpiComm.hpp"
#endif
#include "PyTrilinos_Teuchos_Util.h"

// LOCA includes
#include "LOCA.H"

// Local includes
#define NO_IMPORT_ARRAY
#include "numpy_include.h"
%}

// Standard exception handling
%include "exception.i"

// Include LOCA documentation
%feature("autodoc", "1");
%include "LOCA_dox.i"

// Ignore/renames
%ignore *::operator=;

// Trilinos module imports
%import "Teuchos.i"
%import "NOX.StatusTest.i"

// Teuchos::RCP support
%teuchos_rcp(LOCA::StatusTest::Abstract)
%teuchos_rcp(LOCA::StatusTest::Wrapper)

// LOCA::StatusTest Abstract class
%rename (None_) None;
%feature("director") LOCA::StatusTest::Abstract;
%include "LOCA_StatusTest_Abstract.H"

// LOCA::StatusTest Wrapper class
%feature("director") LOCA::StatusTest::Wrapper;
%include "LOCA_StatusTest_Wrapper.H"
